{
    "req": "https://myblueapi.us-east-1.elasticbeanstalk.com/vitals/providers/summary?account_id=3&network_id=311005002&data_language=en_us&geo_location=10003&limit=10&name=hos&page=1&radius=10&sort=distance%2Basc",
    "resp": {
        "_meta": {
            "counts": {
                "total": 74
            },
            "pages": {
                "total": 8,
                "current": 1,
                "next": 2,
                "previous": null
            }
        },
        "providers": [
            {
                "id": 1000016452,
                "cost": [],
                "provider_id": "f1000016452",
                "provider_type": "F",
                "location_id": 101566433,
                "contract_id": 102492393,
                "name": "NYU Langone Ortho Hosp",
                "first_name": null,
                "middle_name": null,
                "last_name": null,
                "gender": null,
                "photo": null,
                "location_name": "NYU Langone Ortho Hosp",
                "addr_line1": "301 E 17th St",
                "addr_line2": "",
                "city": "New York",
                "state": "NY",
                "postal_code": "10003",
                "longitude": -73.982985,
                "latitude": 40.73403,
                "distance": 0.336818685981473,
                "phone": "2125986000",
                "fax": null,
                "primary_specialty": "General/Acute Care Hospital",
                "accepting_new_patients": "Y",
                "average_wait_time": null,
                "bdc_info": null,
                "overall_rating": 0,
                "ratings_count": 0,
                "percent_recommended": 0,
                "completed_education": null,
                "awards_count": 1,
                "hospital_group_affiliations_count": 0,
                "other_location_count": 0,
                "search_disclaimers": [],
                "amenities_count": 1,
                "languages": [],
                "awards": [
                    {
                        "type_code": "JCAHO",
                        "name": "The Joint Commission",
                        "value": "5820"
                    }
                ],
                "website": null,
                "email": null,
                "tiers": [],
                "future_effective_date": null,
                "future_termination_date": null
            },
            {
                "id": 1000783402,
                "cost": [],
                "provider_id": "p1000783402",
                "provider_type": "P",
                "location_id": 101380878,
                "contract_id": 105086322,
                "name": "Hossain Awini",
                "first_name": "Hossain",
                "middle_name": null,
                "last_name": "Awini",
                "gender": "M",
                "photo": null,
                "location_name": "Hassain Awini MD",
                "addr_line1": "247 3rd Ave Rm 404",
                "addr_line2": "",
                "city": "New York",
                "state": "NY",
                "postal_code": "10010",
                "longitude": -73.984456,
                "latitude": 40.73704,
                "distance": 0.441108455321299,
                "phone": "2124208616",
                "fax": "2126779200",
                "primary_specialty": "Internal Medicine",
                "accepting_new_patients": "Y",
                "average_wait_time": null,
                "bdc_info": null,
                "overall_rating": 0,
                "ratings_count": 0,
                "percent_recommended": 0,
                "completed_education": 1965,
                "awards_count": 0,
                "hospital_group_affiliations_count": 1,
                "other_location_count": 0,
                "search_disclaimers": [],
                "amenities_count": 2,
                "languages": [],
                "awards": [],
                "website": null,
                "email": null,
                "tiers": [],
                "future_effective_date": null,
                "future_termination_date": null
            },
            {
                "id": 1001058440,
                "cost": [],
                "provider_id": "p1001058440",
                "provider_type": "P",
                "location_id": 102071301,
                "contract_id": 107613500,
                "name": "Iffath A Hoskins",
                "first_name": "Iffath",
                "middle_name": "A",
                "last_name": "Hoskins",
                "gender": "F",
                "photo": null,
                "location_name": "New York City Health and Hospita",
                "addr_line1": "462 1st Ave",
                "addr_line2": "",
                "city": "New York",
                "state": "NY",
                "postal_code": "10016",
                "longitude": -73.976226,
                "latitude": 40.740112,
                "distance": 0.876861934681472,
                "phone": "2125625555",
                "fax": "2125623486",
                "primary_specialty": "Ob-Gynecology",
                "accepting_new_patients": "Y",
                "average_wait_time": null,
                "bdc_info": null,
                "overall_rating": 0,
                "ratings_count": 0,
                "percent_recommended": 0,
                "completed_education": null,
                "awards_count": 0,
                "hospital_group_affiliations_count": 2,
                "other_location_count": 2,
                "search_disclaimers": [],
                "amenities_count": 1,
                "languages": [],
                "awards": [],
                "website": null,
                "email": null,
                "tiers": [],
                "future_effective_date": null,
                "future_termination_date": null
            },
            {
                "id": 1000128549,
                "cost": [],
                "provider_id": "f1000128549",
                "provider_type": "F",
                "location_id": 101566899,
                "contract_id": 102493973,
                "name": "NYU Langone Hosp Tisch",
                "first_name": null,
                "middle_name": null,
                "last_name": null,
                "gender": null,
                "photo": null,
                "location_name": "NYU Langone Hosp Tisch",
                "addr_line1": "550 1st Ave",
                "addr_line2": "",
                "city": "New York",
                "state": "NY",
                "postal_code": "10016",
                "longitude": -73.974391,
                "latitude": 40.742646,
                "distance": 1.06871403084495,
                "phone": "2122637300",
                "fax": null,
                "primary_specialty": "General/Acute Care Hospital",
                "accepting_new_patients": "Y",
                "average_wait_time": null,
                "bdc_info": "bdc",
                "overall_rating": 0,
                "ratings_count": 0,
                "percent_recommended": 0,
                "completed_education": null,
                "awards_count": 5,
                "hospital_group_affiliations_count": 0,
                "other_location_count": 0,
                "search_disclaimers": [],
                "amenities_count": 1,
                "languages": [],
                "awards": [
                    {
                        "type_code": "JCAHO",
                        "name": "The Joint Commission",
                        "value": "5820"
                    },
                    {
                        "type_code": "BDCAR",
                        "name": "Blue Distinction Centers for Cardiac Care",
                        "value": "C0"
                    },
                    {
                        "type_code": "BDBAR",
                        "name": "Blue Distinction Centers for Bariatric Surgery",
                        "value": "B6"
                    },
                    {
                        "type_code": "BDTPT",
                        "name": "Blue Distinction Centers for Transplants",
                        "value": "U7"
                    },
                    {
                        "type_code": "BDMAT",
                        "name": "Blue Distinction Centers for Maternity Care",
                        "value": "M0"
                    }
                ],
                "website": null,
                "email": null,
                "tiers": [],
                "future_effective_date": null,
                "future_termination_date": null
            },
            {
                "id": 1000062151,
                "cost": [],
                "provider_id": "f1000062151",
                "provider_type": "F",
                "location_id": 100089748,
                "contract_id": 100337094,
                "name": "The New York and Presbyterian Hospital",
                "first_name": null,
                "middle_name": null,
                "last_name": null,
                "gender": null,
                "photo": null,
                "location_name": "The New York and Presbyterian Hospital",
                "addr_line1": "170 William St",
                "addr_line2": "",
                "city": "New York",
                "state": "NY",
                "postal_code": "10038",
                "longitude": -74.005602,
                "latitude": 40.710403,
                "distance": 1.70802971137001,
                "phone": "2123125000",
                "fax": null,
                "primary_specialty": "General/Acute Care Hospital",
                "accepting_new_patients": "Y",
                "average_wait_time": null,
                "bdc_info": "bdc",
                "overall_rating": 0,
                "ratings_count": 0,
                "percent_recommended": 0,
                "completed_education": null,
                "awards_count": 1,
                "hospital_group_affiliations_count": 0,
                "other_location_count": 0,
                "search_disclaimers": [],
                "amenities_count": 1,
                "languages": [],
                "awards": [
                    {
                        "type_code": "BDMAT",
                        "name": "Blue Distinction Centers for Maternity Care",
                        "value": "M0"
                    }
                ],
                "website": null,
                "email": null,
                "tiers": [],
                "future_effective_date": null,
                "future_termination_date": null
            },
            {
                "id": 1001059253,
                "cost": [],
                "provider_id": "p1001059253",
                "provider_type": "P",
                "location_id": 102075927,
                "contract_id": 107630185,
                "name": "Md A Hossain",
                "first_name": "Md",
                "middle_name": "A",
                "last_name": "Hossain",
                "gender": "M",
                "photo": null,
                "location_name": "Moffa Gina L",
                "addr_line1": "1000 10th Ave",
                "addr_line2": "",
                "city": "New York",
                "state": "NY",
                "postal_code": "10019",
                "longitude": -73.987856,
                "latitude": 40.770116,
                "distance": 2.6757443066346,
                "phone": "2125235918",
                "fax": "2125232842",
                "primary_specialty": "Internal Medicine",
                "accepting_new_patients": "Y",
                "average_wait_time": null,
                "bdc_info": "bdc",
                "overall_rating": 0,
                "ratings_count": 0,
                "percent_recommended": 0,
                "completed_education": null,
                "awards_count": 1,
                "hospital_group_affiliations_count": 2,
                "other_location_count": 1,
                "search_disclaimers": [],
                "amenities_count": 1,
                "languages": [],
                "awards": [
                    {
                        "type_code": "BDTC",
                        "name": "Blue Distinction Total Care",
                        "value": "Y"
                    }
                ],
                "website": null,
                "email": null,
                "tiers": [],
                "future_effective_date": null,
                "future_termination_date": null
            },
            {
                "id": 1000351128,
                "cost": [],
                "provider_id": "f1000351128",
                "provider_type": "F",
                "location_id": 100480561,
                "contract_id": 101740027,
                "name": "Rockefeller University Hospital",
                "first_name": null,
                "middle_name": null,
                "last_name": null,
                "gender": null,
                "photo": null,
                "location_name": "Rockefeller University Hospital",
                "addr_line1": "1230 York Ave",
                "addr_line2": "",
                "city": "New York",
                "state": "NY",
                "postal_code": "10065",
                "longitude": -73.956535,
                "latitude": 40.763049,
                "distance": 2.75085164762929,
                "phone": "2123278000",
                "fax": null,
                "primary_specialty": "Rural Health Clinic",
                "accepting_new_patients": "Y",
                "average_wait_time": null,
                "bdc_info": null,
                "overall_rating": 0,
                "ratings_count": 0,
                "percent_recommended": 0,
                "completed_education": null,
                "awards_count": 0,
                "hospital_group_affiliations_count": 0,
                "other_location_count": 0,
                "search_disclaimers": [],
                "amenities_count": 1,
                "languages": [],
                "awards": [],
                "website": null,
                "email": null,
                "tiers": [],
                "future_effective_date": null,
                "future_termination_date": null
            },
            {
                "id": 1000015132,
                "cost": [],
                "provider_id": "f1000015132",
                "provider_type": "F",
                "location_id": 100018917,
                "contract_id": 100071398,
                "name": "New York Presbyterian Hosp",
                "first_name": null,
                "middle_name": null,
                "last_name": null,
                "gender": null,
                "photo": null,
                "location_name": "New York Presbyterian Hosp",
                "addr_line1": "525 E 68th St",
                "addr_line2": "",
                "city": "New York",
                "state": "NY",
                "postal_code": "10065",
                "longitude": -73.954345,
                "latitude": 40.764154,
                "distance": 2.88144772391043,
                "phone": "2127465454",
                "fax": null,
                "primary_specialty": "General/Acute Care Hospital",
                "accepting_new_patients": "Y",
                "average_wait_time": null,
                "bdc_info": "bdc",
                "overall_rating": 4.4,
                "ratings_count": 350,
                "percent_recommended": 96,
                "completed_education": null,
                "awards_count": 3,
                "hospital_group_affiliations_count": 0,
                "other_location_count": 0,
                "search_disclaimers": [],
                "amenities_count": 1,
                "languages": [],
                "awards": [
                    {
                        "type_code": "BDBAR",
                        "name": "Blue Distinction Centers for Bariatric Surgery",
                        "value": "B6"
                    },
                    {
                        "type_code": "JCAHO",
                        "name": "The Joint Commission",
                        "value": "5838"
                    },
                    {
                        "type_code": "BDMAT",
                        "name": "Blue Distinction Centers for Maternity Care",
                        "value": "M0"
                    }
                ],
                "website": null,
                "email": null,
                "tiers": [],
                "future_effective_date": null,
                "future_termination_date": null
            },
            {
                "id": 1000309306,
                "cost": [],
                "provider_id": "f1000309306",
                "provider_type": "F",
                "location_id": 100484611,
                "contract_id": 101753718,
                "name": "Brooklyn Hosp Center Brooklyn Division",
                "first_name": null,
                "middle_name": null,
                "last_name": null,
                "gender": null,
                "photo": null,
                "location_name": "Brooklyn Hosp Center Brooklyn Division",
                "addr_line1": "121 DeKalb Ave",
                "addr_line2": "",
                "city": "Brooklyn",
                "state": "NY",
                "postal_code": "11201",
                "longitude": -73.978906,
                "latitude": 40.689869,
                "distance": 2.91290385975493,
                "phone": "7182508000",
                "fax": null,
                "primary_specialty": "General/Acute Care Hospital",
                "accepting_new_patients": "Y",
                "average_wait_time": null,
                "bdc_info": null,
                "overall_rating": 4.3,
                "ratings_count": 350,
                "percent_recommended": 90,
                "completed_education": null,
                "awards_count": 0,
                "hospital_group_affiliations_count": 0,
                "other_location_count": 0,
                "search_disclaimers": [],
                "amenities_count": 1,
                "languages": [],
                "awards": [],
                "website": null,
                "email": null,
                "tiers": [],
                "future_effective_date": null,
                "future_termination_date": null
            },
            {
                "id": 1000083288,
                "cost": [],
                "provider_id": "f1000083288",
                "provider_type": "F",
                "location_id": 100162676,
                "contract_id": 100584527,
                "name": "Hospital for Special Surg",
                "first_name": null,
                "middle_name": null,
                "last_name": null,
                "gender": null,
                "photo": null,
                "location_name": "Hospital for Special Surg",
                "addr_line1": "535 E 70th St",
                "addr_line2": "",
                "city": "New York",
                "state": "NY",
                "postal_code": "10021",
                "longitude": -73.953232,
                "latitude": 40.764915,
                "distance": 2.95884206230975,
                "phone": "2126061000",
                "fax": null,
                "primary_specialty": "General/Acute Care Hospital",
                "accepting_new_patients": "Y",
                "average_wait_time": null,
                "bdc_info": null,
                "overall_rating": 4.7,
                "ratings_count": 350,
                "percent_recommended": 98,
                "completed_education": null,
                "awards_count": 0,
                "hospital_group_affiliations_count": 0,
                "other_location_count": 0,
                "search_disclaimers": [],
                "amenities_count": 1,
                "languages": [],
                "awards": [],
                "website": null,
                "email": null,
                "tiers": [],
                "future_effective_date": null,
                "future_termination_date": null
            }
        ]
    }
}